 ** Message System Log
 ** Database: 
 ** Date:   Tue Sep 13 07:51:56 2011


****************
Macro Parameters
****************

Name                            : CIC_twoport_mem
Family                          : SmartFusion
Output Format                   : VHDL
Type                            : RAM
Write Enable                    : Active High
Read Enable                     : Active High
Reset                           : Active High
LP                              : None
FF                              : None
Read Clock                      : Rising
Write Clock                     : Rising
Write Depth                     : 20
Write Width                     : 27
Read Depth                      : 20
Read Width                      : 27
RAM Type                        : Two Port
Clocks                          : Single Read/Write Clock
Write Mode A                    : Hold Data
Write Mode B                    : Hold Data
Read Pipeline A                 : No
Read Pipeline B                 : No
Optimized for                   : Power
Portname DataIn                 : WD
Portname DataOut                : RD
Portname Write En               : WEN
Portname Read En                : REN
Portname WClock                 :
Portname RClock                 :
Portname WAddress               : WADDR
Portname RAddress               : RADDR
Portname Reset                  : RESET
Portname Clock                  : RWCLK
Portname DataAIn                :
Portname DataBIn                :
Portname DataAOut               :
Portname DataBOut               :
Portname AddressA               :
Portname AddressB               :
Portname CLKA                   :
Portname CLKB                   :
Portname RWA                    :
Portname RWB                    :
Portname BLKA                   :
Portname BLKB                   :
Portname LP                     :
Portname FF                     :
Initialize RAM                  : True

Cascade Configuration:
     Write Port configuration   : 256x18
     Read Port configuration    : 256x18
     Number of blocks depth wise: 1
     Number of blocks width wise: 2

**************
Compile Report
**************


Netlist Resource Report
=======================

    Microcontroller Subsystem  Used:      0  Total:      1   (0.00%)
    Fabric                     Used:      3  Total:   4608   (0.07%)
    Fabric IO (W/ clocks)      Used:      0  Total:     94   (0.00%)
    Fabric Differential IO     Used:      0  Total:     47   (0.00%)
    Dedicated Analog IO        Used:      0  Total:     32   (0.00%)
    Dedicated MSS IO           Used:      0  Total:     43   (0.00%)
    GLOBAL (Chip+Quadrant)     Used:      0  Total:     15   (0.00%)
    MSS GLOBAL                 Used:      0  Total:      3   (0.00%)
    On-chip RC oscillator      Used:      0  Total:      1   (0.00%)
    Main Crystal oscillator    Used:      0  Total:      1   (0.00%)
    32 KHz Crystal oscillator  Used:      0  Total:      1   (0.00%)
    RAM/FIFO                   Used:      2  Total:      8   (25.00%)
    User JTAG                  Used:      0  Total:      1   (0.00%)

Wrote VHDL netlist to
D:/Work/marmote/projects/CIC_FABRIC_SRAM/smartgen\CIC_twoport_mem\CIC_twoport\
_mem.vhd.

 ** Log Ended:   Tue Sep 13 07:51:57 2011

